{
    "img": ["https://gitlab.com/louie-211k/yun_cloud/-/raw/main/Louie/1/img/xuxieban.png", "https://gitlab.com/louie-211k/yun_cloud/-/raw/main/Louie/1/img/xuxieban__1_.png", "https://gitlab.com/louie-211k/yun_cloud/-/raw/main/Louie/1/img/xuxieban__2_.png", "https://gitlab.com/louie-211k/yun_cloud/-/raw/main/Louie/1/img/xuxieban__3_.png"]
}
